Chapter 6 Analyzing mass spectrometry data in R | Portfolio
…
## CharacterList of length 1
## [["controllerType=0 controllerNumber=1 scan=1774"]] ECA2104 ECA2867 ECA3427 ECA4142

# Load library
library(dplyr)

# Make tibble
id_tbl <- as_tibble(id)

# Check
id_tbl

## # A tibble: 5,802 × 35
##    sequence    spectrumID chargeState  rank passThreshold experimentalMassToCh…¹
##    <chr>       <chr>            <int> <int> <lgl>                          <dbl>
##  1 RQCRTDFLNY… controlle…           3     1 TRUE                            548.
##  2 ESVALADQVT… controlle…           2     1 TRUE                           1288.
##  3 KELLCLAMQI… controlle…           2     1 TRUE                            744.
##  4 QRMARTSDKQ… controlle…           3     1 TRUE                            913.
##  5 KDEGSTEPLK… controlle…           3     1 TRUE                            927.
##  6 DGGPAIYGHE… controlle…           3     1 TRUE                            969.
##  7 QRMARTSDKQ… controlle…           2     1 TRUE                           1369.
##  8 CIDRARHVEV… controlle…           3     1 TRUE                           1285.
##  9 CIDRARHVEV… controlle…           3     1 TRUE                           1285.
## 10 VGRCRPIINY… controlle…           2     1 TRUE                           1102.
## # ℹ 5,792 more rows
## # ℹ abbreviated name: ¹​experimentalMassToCharge
## # ℹ 29 more variables: calculatedMassToCharge <dbl>, peptideRef <chr>,
## #   modNum <int>, isDecoy <lgl>, post <chr>, pre <chr>, start <int>, end <int>,
## #   DatabaseAccess <chr>, DBseqLength <int>, DatabaseSeq <chr>,
## #   DatabaseDescription <chr>, scan.number.s. <dbl>, acquisitionNum <dbl>,
## #   spectrumFile <chr>, idFile <chr>, MS.GF.RawScore <dbl>, …

# Delete decoy hits
id_tbl <- id_tbl %>%
    filter(!isDecoy)

# Filter the first rank matches
id_tbl <- id_tbl %>%
    filter(rank == 1)

# Check
id_tbl

## # A tibble: 2,751 × 35
##    sequence    spectrumID chargeState  rank passThreshold experimentalMassToCh…¹
##    <chr>       <chr>            <int> <int> <lgl>                          <dbl>
##  1 RQCRTDFLNY… controlle…           3     1 TRUE                            548.
##  2 ESVALADQVT… controlle…           2     1 TRUE                           1288.
##  3 QRMARTSDKQ… controlle…           3     1 TRUE                            913.
##  4 DGGPAIYGHE… controlle…           3     1 TRUE                            969.
##  5 QRMARTSDKQ… controlle…           2     1 TRUE                           1369.
##  6 CIDRARHVEV… controlle…           3     1 TRUE                           1285.
##  7 CIDRARHVEV… controlle…           3     1 TRUE                           1285.
##  8 VGRCRPIINY… controlle…           2     1 TRUE                           1102.
##  9 QRLDEHCVGV… controlle…           3     1 TRUE                            713.
## 10 VDYQGKKVVI… controlle…           4     1 TRUE                            870.
## # ℹ 2,741 more rows
## # ℹ abbreviated name: ¹​experimentalMassToCharge
## # ℹ 29 more variables: calculatedMassToCharge <dbl>, peptideRef <chr>,
## #   modNum <int>, isDecoy <lgl>, post <chr>, pre <chr>, start <int>, end <int>,
## #   DatabaseAccess <chr>, DBseqLength <int>, DatabaseSeq <chr>,
## #   DatabaseDescription <chr>, scan.number.s. <dbl>, acquisitionNum <dbl>,
## #   spectrumFile <chr>, idFile <chr>, MS.GF.RawScore <dbl>, …
…
